{
  "state": {
    "code": 2000,
    "msg": "ok"
  },
  "data": {
    "clientsNumber": 0,
    "online": 693,
    "offline": 293,
    "terminalType": [],
    "flowList": [
        {
            "name": "ap",

            "data": [2 ,3, 4, 5, 6, 102400021331, 102440221331, 1024340233312, 1243402213312, 1026560213312, 1024036213312, 12, 13, 14, 15, 16, 17, 18, 19, 20, 21, 22, 23, 24]
        },
        {
            "name": "wireless",
            "data": [2 ,3, 2, 5, 6, 10244502133, 102045602133, 102412202133, 102400021331, 102432021331, 102330021331, 24, 13, 14, 15, 54, 17, 18, 19, 20, 21, 22, 23, 24]

        },
        {
            "name": "clients",

            "data": [12,78, 36, 2, 1024000213312, 20, 75, 15, 2, 67, 2, 34, 2, 123, 34, 45,2,46, 34, 2, 2, 20, 2, 2]
        }
    ],
    "neighborsAps": {
      "page": {
          "start": 2,
          "size": 2,
          "currPage": 2,
          "totalPage": 4,
          "total": 4,
          "nextPage": 3,
          "lastPage": 4
      },
      "list": [
          {
              "time": "2017-2-2",
              "ssid": "xxxx",
              "mac": "12:33:44:55:66:78",
              "channel": 7,
              "rssi": -49,
              "radioId": 1,
              "isCounter": 1
          },
          {
              "time": "2017-2-2",
              "ssid": "dsds",
              "mac": "12:33:44:55:66:79",
              "channel": 7,
              "rssi": -49,
              "radioId": 0,
              "isCounter": 0
          }
      ]
    },
    "aroundAps": {
      "page": {
          "start": 2,
          "size": 2,
          "currPage": 2,
          "totalPage": 4,
          "total": 4,
          "nextPage": 3,
          "lastPage": 4
      },
      "list": [
          {
              "time": "2017-2-2",
              "ssid": "dsds",
              "mac": "12:33:44:55:66:78",
              "channel": 7,
              "rssi": -49
          },
          {
              "time": "2017-2-2",
              "ssid": "dsds",
              "mac": "12:33:44:55:66:79",
              "channel": 7,
              "rssi": -49
          }
      ]
    }
  }
}
