{
    "state": {
        "code": 2000,
        "msg": "用户名或密码错误"
    },
    "data": {
        "page": {
            "start": 1,
            "size": 2,
            "currPage": 2,
            "totalPage": 2,
            "total": 4,
            "pageCount": 2,
            "nextPage": 2,
            "lastPage": 4
        },
        "list": [
            {
                "groupname": "研发",
                "remarks": "只有开通网络权限"
            },
            {
                "groupname": "测试",
                "remarks": "只有开通网络权限"
            }
        ]
    }
}