{
    "state": {
        "code": 2000,
        "msg": "ok"
    },
    "data": {
        "page": {
            "start": 1,
            "size": 50,
            "currPage": 2,
            "totalPage": 3,
            "total": 123,
            "nextPage": 3,
            "lastPage": 4
        },
        "list": [
            {
                "type": "wireless",
                "devicename": "android-1213",
                "ip": "192.168.5.123",
                "mac": "12:22:33:44:55:66",
                "ssid": "ssid1",
                "connectap": "ap1",
                "downstream": "256",
                "upstream": "1232323",
                "rssi": "86",
                "frequency":"5.8G",
                "athName": "ath3",
                "authtype": "portal",
                "operationhours": "23444",
                "wirelessType": "main",
                "islock": "lock",
                "vendor": "huawei",
                "lasttime":"2016-06-22 17:25:51"
            },
            {
                "type": "guest",
                "devicename": "android-32432",
                "ip": "192.168.5.32",
                "mac": "12:22:33:44:55:65",
                "ssid": "ssid2",
                "frequency":"2.4G",
                "athName": "ath0",
                "connectap": "ap2",
                "downstream": "128",
                "upstream": "64",
                "rssi": "76",
                "authtype": "portal",
                "operationhours": "6600",
                "wirelessType": "main",
                "islock": "unlock",
                "vendor": "huawei",
                "lasttime":"2016-06-22 17:25:51"
            },
            {
                "type": "guest",
                "devicename": "android-32432",
                "ip": "192.168.5.32",
                "frequency":"5.8G",
                "athName": "ath2",
                "mac": "12:22:33:44:55:65",
                "ssid": "ssid2",
                "connectap": "",
                "apmac": "12:22:33:44:55:65",
                "downstream": "128",
                "upstream": "68",
                "rssi": "70",
                "authtype": "0",
                "operationhours": "6600",
                "wirelessType": "main",
                "islock": "unlock",
                "vendor": "huawei",
                "lasttime":"2016-06-22 17:25:51"
            },
            {
                "type": "guest",
                "devicename": "android-32432",
                "ip": "192.168.5.32",
                "mac": "12:22:33:44:55:65",
                "ssid": "ssid2",
                "connectap": "ap2",
                "downstream": "128",
                "upstream": "64",
                "rssi": "60",
                "authtype": "portal",
                "frequency":"5.8G",
                "athName": "ath1",
                "operationhours": "6600",
                "wirelessType": "guest",
                "islock": "unlock",
                "vendor": "huawei",
                "lasttime":"2016-06-22 17:25:51",
                "status": "disable"
            },
            {
                "type": "wireless",
                "devicename": "android-1213",
                "ip": "192.168.5.123",
                "mac": "12:22:33:44:55:66",
                "ssid": "ssid1",
                "frequency":"5.8G",
                "athName": "ath0",
                "connectap": "ap1",
                "downstream": "256",
                "upstream": "1232323",
                "rssi": "86",
                "authtype": "portal",
                "operationhours": "23444",
                "wirelessType": "main",
                "islock": "lock",
                "vendor": "huawei",
                "lasttime":"2016-06-22 17:25:51"
            },
            {
                "type": "guest",
                "devicename": "android-32432",
                "ip": "192.168.5.32",
                "mac": "12:22:33:44:55:65",
                "ssid": "ssid2",
                "connectap": "ap2",
                "frequency":"5.8G",
                "athName": "ath6",
                "downstream": "128",
                "upstream": "64",
                "rssi": "76",
                "authtype": "portal",
                "operationhours": "6600",
                "wirelessType": "main",
                "islock": "unlock",
                "vendor": "huawei",
                "lasttime":"2016-06-22 17:25:51"
            }
        ]
    }
}
